identificadorDeCodigoDeBarras/simulation/qsim/identificadorDeCodigoDeBarras.msim.vcd
$comment
	File created using the following command:
		vcd file identificadorDeCodigoDeBarras.msim.vcd -direction
$end
$date
	Wed Mar 08 22:00:25 2023
$end
$version
	ModelSim Version 10.1d
$end
$timescale
	1ps
$end
$scope module identificadorDeCodigoDeBarras_vlg_vec_tst $end
$var reg 1 ! E0 $end
$var reg 1 " E1 $end
$var reg 1 # E2 $end
$var reg 1 $ E3 $end
$var reg 1 % E4 $end
$var reg 1 & E5 $end
$var reg 1 ' E6 $end
$var reg 1 ( E7 $end
$var wire 1 ) C0 $end
$var wire 1 * C1 $end
$var wire 1 + C2 $end
$var wire 1 , C3 $end
$var wire 1 - C4 $end
$var wire 1 . L0 $end
$var wire 1 / L1 $end
$var wire 1 0 L2 $end
$var wire 1 1 L3 $end
$var wire 1 2 L4 $end
$var wire 1 3 L5 $end
$var wire 1 4 L6 $end
$var wire 1 5 a $end
$var wire 1 6 b $end
$var wire 1 7 c $end
$var wire 1 8 d $end
$var wire 1 9 dig1seg $end
$var wire 1 : dig2seg $end
$var wire 1 ; dig3seg $end
$var wire 1 < dig4seg $end
$var wire 1 = e $end
$var wire 1 > f $end
$var wire 1 ? g $end
$var wire 1 @ ledG $end
$var wire 1 A ledR $end
$var wire 1 B sampler $end
$scope module i1 $end
$var wire 1 C gnd $end
$var wire 1 D vcc $end
$var wire 1 E unknown $end
$var tri1 1 F devclrn $end
$var tri1 1 G devpor $end
$var tri1 1 H devoe $end
$var wire 1 I E0~combout $end
$var wire 1 J E1~combout $end
$var wire 1 K inst2|ERRO~0_combout $end
$var wire 1 L E3~combout $end
$var wire 1 M E2~combout $end
$var wire 1 N E4~combout $end
$var wire 1 O E7~combout $end
$var wire 1 P E6~combout $end
$var wire 1 Q E5~combout $end
$var wire 1 R inst2|dig2Enabled~0_combout $end
$var wire 1 S inst2|dig9Enabled~0_combout $end
$var wire 1 T inst2|dig4Enabled~0_combout $end
$var wire 1 U inst2|dig4Enabled~1_combout $end
$var wire 1 V inst2|G~0_combout $end
$var wire 1 W inst2|dig3Enabled~0_combout $end
$var wire 1 X inst2|dig3Enabled~1_combout $end
$var wire 1 Y inst2|dig5Enabled~4_combout $end
$var wire 1 Z inst2|dig3Enabled~2_combout $end
$var wire 1 [ inst2|ENABLE~combout $end
$var wire 1 \ inst2|dig2Enabled~1_combout $end
$var wire 1 ] inst2|dig1Enabled~0_combout $end
$var wire 1 ^ inst2|dig2Enabled~2_combout $end
$var wire 1 _ inst2|dig8Enabled~0_combout $end
$var wire 1 ` inst2|dig8Enabled~1_combout $end
$var wire 1 a inst2|ERRO~1_combout $end
$var wire 1 b inst2|ERRO~2_combout $end
$var wire 1 c inst2|dig6Enabled~0_combout $end
$var wire 1 d inst2|ERRO~4_combout $end
$var wire 1 e inst2|ERRO~3_combout $end
$var wire 1 f inst2|ERRO~5_combout $end
$var wire 1 g inst2|F~0_combout $end
$var wire 1 h inst2|G~1_combout $end
$var wire 1 i inst2|G~combout $end
$var wire 1 j inst2|F~1_combout $end
$var wire 1 k inst2|F~combout $end
$var wire 1 l inst2|E~0_combout $end
$var wire 1 m inst2|E~combout $end
$var wire 1 n inst2|D~0_combout $end
$var wire 1 o inst2|dig1Enabled~1_combout $end
$var wire 1 p inst2|acionamentoDig4~0_combout $end
$var wire 1 q inst2|C~0_combout $end
$var wire 1 r inst2|C~combout $end
$var wire 1 s inst2|dig2Enabled~3_combout $end
$var wire 1 t inst2|B~combout $end
$var wire 1 u inst2|A~combout $end
$var wire 1 v inst2|ERRO~6_combout $end
$var wire 1 w inst1|linha0~0_combout $end
$var wire 1 x inst1|linha0~1_combout $end
$var wire 1 y inst1|linha0~2_combout $end
$var wire 1 z inst1|linha0~3_combout $end
$var wire 1 { inst1|linha0~4_combout $end
$var wire 1 | inst1|linha0~5_combout $end
$var wire 1 } inst1|linha0~6_combout $end
$var wire 1 ~ inst1|coluna4~combout $end
$var wire 1 !! inst1|coluna3~combout $end
$var wire 1 "! inst1|coluna2~combout $end
$var wire 1 #! inst1|coluna1~combout $end
$var wire 1 $! inst1|coluna0~combout $end
$var wire 1 %! inst2|acionamentoDig4~combout $end
$upscope $end
$upscope $end
$enddefinitions $end
#0
$dumpvars
0!
0"
0#
0$
0%
0&
0'
0(
0)
0*
0+
0,
0-
1.
1/
10
11
12
13
14
05
16
17
08
19
1:
1;
0<
0=
0>
0?
0@
1A
xB
0C
1D
xE
1F
1G
1H
0I
0J
0K
0L
0M
0N
0O
0P
0Q
1R
0S
0T
0U
1V
1W
0X
0Y
0Z
0[
0\
0]
0^
0_
0`
0a
0b
0c
0d
0e
0f
0g
0h
1i
1j
1k
0l
1m
0n
0o
1p
1q
0r
0s
0t
1u
0v
0w
0x
0y
0z
0{
0|
0}
0~
0!!
0"!
0#!
0$!
1%!
$end
#10000
1!
1I
0B
1s
1e
1]
0W
1U
#20000
1"
0!
1J
0I
1B
1_
0U
1K
0s
0]
1W
#30000
1!
1I
0B
1s
0e
1a
1]
0W
0K
1$!
1#!
1v
1b
0p
1g
0q
1-
1,
1@
0A
1l
0k
1h
1t
1r
0m
1n
0i
1>
06
07
18
1=
1?
#40000
1#
0"
0!
1M
0J
0I
1B
0$!
0#!
0v
0s
1e
0b
0]
1T
0a
0_
1W
0u
0g
1p
0-
0,
0@
1A
0l
1k
0h
0%!
1q
15
1m
1%!
0n
1i
0t
0r
0>
1<
1u
08
0=
0<
0?
16
17
05
#50000
1!
1I
0B
0e
1d
0W
1U
1f
0V
1$!
1"!
1v
1g
0j
1l
1h
0q
1-
1+
1@
0A
0m
1n
1t
1r
0u
18
1=
06
07
15
#60000
1"
0!
1J
0I
1B
1#!
1_
0U
1K
0$!
1W
1V
0n
1m
1,
0-
0i
1u
08
0=
1?
05
#70000
1!
1I
0B
1$!
0d
1a
0W
0K
0f
1n
0m
1j
1-
0$!
0#!
0"!
0v
0g
0u
0%!
1q
0k
18
1=
0l
1k
0h
0t
0r
0-
0,
0+
0@
1A
15
1<
1>
1m
1%!
0n
1i
0>
16
17
1u
08
0=
0<
0?
05
#80000
1$
0#
0"
0!
1L
0M
0J
0I
1B
1!!
0a
0_
1\
0T
1v
1b
1W
0!!
0v
0b
1g
1*
1@
0A
0g
1l
0k
1h
0*
0@
1A
0l
1k
0h
0m
0%!
1n
0i
1>
1m
1%!
0n
1i
0u
18
0>
1=
1<
1?
1u
08
0=
0<
0?
15
05
#90000
1!
1I
0B
1s
1e
1]
0W
1U
1t
1f
1^
1$!
1!!
1v
1g
06
0k
1-
1*
1@
0A
1>
#100000
1"
0!
1J
0I
1B
1#!
0t
0\
0U
1K
0$!
0s
0]
1W
1l
0^
1S
1,
0-
16
0m
1h
0V
0%!
1n
0j
1=
1%!
0q
1k
18
1<
1t
1r
0<
0>
06
07
#110000
1!
1I
0B
1$!
1s
0e
1]
0W
0K
0f
0S
1-
0$!
0#!
0!!
0v
0g
0u
1V
0l
0h
1j
0i
0-
0,
0*
0@
1A
15
1m
0n
1i
1q
1?
1u
0t
0r
08
0=
0?
05
16
17
#120000
1#
0"
0!
1M
0J
0I
1B
0s
1e
0]
1t
1\
1W
0t
1f
1c
06
1"!
1!!
1v
1r
16
1+
1*
1@
0A
07
#130000
1!
1I
0B
1$!
0e
0c
0W
1U
0f
0r
1g
1-
0$!
0"!
0!!
0v
0g
1l
0k
1h
17
0l
1k
0h
0m
0%!
1n
0i
0-
0+
0*
0@
1A
1>
1m
1%!
0n
1i
0u
18
0>
1=
1<
1?
1u
08
0=
0<
0?
15
05
#140000
1"
0!
1J
0I
1B
0\
0U
1K
1c
1W
0c
1r
0r
07
17
#150000
1!
1I
0B
0W
0K
#160000
1%
0$
0#
0"
0!
1N
0L
0M
0J
0I
1B
1X
0R
1W
#170000
1!
1I
0B
1e
1]
0W
1U
1f
1o
1$!
1~
1v
1g
0p
1l
0k
1h
0q
1-
1)
1@
0A
0m
1n
0i
1t
1r
1>
0u
18
1=
1?
06
07
15
#180000
1"
0!
1J
0I
1B
1#!
1_
0X
0U
1K
0$!
0]
1W
1`
0o
1,
0-
0g
1p
0l
1k
0h
0%!
1m
1%!
0n
1i
0>
1<
1u
08
0=
0<
0?
05
#190000
1!
1I
0B
1$!
0e
1]
0W
0K
0f
0`
1-
0$!
0#!
0~
0v
1q
0t
0r
0-
0,
0)
0@
1A
16
17
#200000
1#
0"
0!
1M
0J
0I
1B
1e
0]
1T
0_
1X
1W
1f
1Y
1"!
1~
1v
1g
1r
1l
1+
1)
1@
0A
07
0m
1=
#210000
1!
1I
0B
1$!
0e
1d
0W
1U
0f
0Y
1-
0$!
0"!
0~
0v
0g
0r
0k
1h
0l
1k
0h
0%!
1n
0i
0-
0+
0)
0@
1A
17
1>
1m
1%!
0n
1i
0u
18
0>
1<
1?
1u
08
0=
0<
0?
15
05
#220000
1"
0!
1J
0I
1B
1_
0X
0U
1K
1W
#230000
1!
1I
0B
0d
0W
0K
#240000
1$
0#
0"
0!
1L
0M
0J
0I
1B
1a
0_
1\
0T
1X
1W
1!!
1~
1v
1b
1Z
1g
0q
1*
1)
1@
0A
1l
0k
1t
1r
0m
1>
06
07
1=
#250000
1!
1I
0B
1$!
1e
0a
1]
0W
1U
0$!
0!!
0~
0v
0b
0Z
1-
0g
1q
1h
0-
0*
0)
0@
1A
0l
1k
0h
0t
0r
0%!
1n
0i
1m
1%!
0n
1i
0u
18
0>
16
17
1<
1?
1u
08
0=
0<
0?
15
05
#260000
1"
0!
1J
0I
1B
0\
0X
0U
1K
0]
1W
#270000
1!
1I
0B
0e
1]
0W
0K
#280000
1#
0"
0!
1M
0J
0I
1B
1e
0]
1a
1\
1X
1W
#290000
1!
1I
0B
0e
0a
0W
1U
#300000
1"
0!
1J
0I
1B
0\
0X
0U
1K
1W
#310000
1!
1I
0B
0W
0K
#320000
0%
0$
0#
0"
0!
0N
0L
0M
0J
0I
1B
1R
1W
#330000
1!
1I
0B
1s
1e
1]
0W
1U
#340000
1"
0!
1J
0I
1B
1_
0U
1K
0s
0]
1W
#350000
1!
1I
0B
1s
0e
1a
1]
0W
0K
1$!
1#!
1v
1b
0p
1g
0q
1-
1,
1@
0A
1l
0k
1h
1t
1r
0m
1n
0i
1>
06
07
18
1=
1?
#360000
1#
0"
0!
1M
0J
0I
1B
0$!
0#!
0v
0s
1e
0b
0]
1T
0a
0_
1W
0u
0g
1p
0-
0,
0@
1A
0l
1k
0h
0%!
1q
15
1m
1%!
0n
1i
0t
0r
0>
1<
1u
08
0=
0<
0?
16
17
05
#370000
1!
1I
0B
0e
1d
0W
1U
1f
0V
1$!
1"!
1v
1g
0j
1l
1h
0q
1-
1+
1@
0A
0m
1n
1t
1r
0u
18
1=
06
07
15
#380000
1"
0!
1J
0I
1B
1#!
1_
0U
1K
0$!
1W
1V
0n
1m
1,
0-
0i
1u
08
0=
1?
05
#390000
1!
1I
0B
1$!
0d
1a
0W
0K
0f
1n
0m
1j
1-
0$!
0#!
0"!
0v
0g
0u
0%!
1q
0k
18
1=
0l
1k
0h
0t
0r
0-
0,
0+
0@
1A
15
1<
1>
1m
1%!
0n
1i
0>
16
17
1u
08
0=
0<
0?
05
#400000
1$
0#
0"
0!
1L
0M
0J
0I
1B
1!!
0a
0_
1\
0T
1v
1b
1W
0!!
0v
0b
1g
1*
1@
0A
0g
1l
0k
1h
0*
0@
1A
0l
1k
0h
0m
0%!
1n
0i
1>
1m
1%!
0n
1i
0u
18
0>
1=
1<
1?
1u
08
0=
0<
0?
15
05
#410000
1!
1I
0B
1s
1e
1]
0W
1U
1t
1f
1^
1$!
1!!
1v
1g
06
0k
1-
1*
1@
0A
1>
#420000
1"
0!
1J
0I
1B
1#!
0t
0\
0U
1K
0$!
0s
0]
1W
1l
0^
1S
1,
0-
16
0m
1h
0V
0%!
1n
0j
1=
1%!
0q
1k
18
1<
1t
1r
0<
0>
06
07
#430000
1!
1I
0B
1$!
1s
0e
1]
0W
0K
0f
0S
1-
0$!
0#!
0!!
0v
0g
0u
1V
0l
0h
1j
0i
0-
0,
0*
0@
1A
15
1m
0n
1i
1q
1?
1u
0t
0r
08
0=
0?
05
16
17
#440000
1#
0"
0!
1M
0J
0I
1B
0s
1e
0]
1t
1\
1W
0t
1f
1c
06
1"!
1!!
1v
1r
16
1+
1*
1@
0A
07
#450000
1!
1I
0B
1$!
0e
0c
0W
1U
0f
0r
1g
1-
0$!
0"!
0!!
0v
0g
1l
0k
1h
17
0l
1k
0h
0m
0%!
1n
0i
0-
0+
0*
0@
1A
1>
1m
1%!
0n
1i
0u
18
0>
1=
1<
1?
1u
08
0=
0<
0?
15
05
#460000
1"
0!
1J
0I
1B
0\
0U
1K
1c
1W
0c
1r
0r
07
17
#470000
1!
1I
0B
0W
0K
#480000
1%
0$
0#
0"
0!
1N
0L
0M
0J
0I
1B
1X
0R
1W
#490000
1!
1I
0B
1e
1]
0W
1U
1f
1o
1$!
1~
1v
1g
0p
1l
0k
1h
0q
1-
1)
1@
0A
0m
1n
0i
1t
1r
1>
0u
18
1=
1?
06
07
15
#500000
1"
0!
1J
0I
1B
1#!
1_
0X
0U
1K
0$!
0]
1W
1`
0o
1,
0-
0g
1p
0l
1k
0h
0%!
1m
1%!
0n
1i
0>
1<
1u
08
0=
0<
0?
05
#510000
1!
1I
0B
1$!
0e
1]
0W
0K
0f
0`
1-
0$!
0#!
0~
0v
1q
0t
0r
0-
0,
0)
0@
1A
16
17
#520000
1#
0"
0!
1M
0J
0I
1B
1e
0]
1T
0_
1X
1W
1f
1Y
1"!
1~
1v
1g
1r
1l
1+
1)
1@
0A
07
0m
1=
#530000
1!
1I
0B
1$!
0e
1d
0W
1U
0f
0Y
1-
0$!
0"!
0~
0v
0g
0r
0k
1h
0l
1k
0h
0%!
1n
0i
0-
0+
0)
0@
1A
17
1>
1m
1%!
0n
1i
0u
18
0>
1<
1?
1u
08
0=
0<
0?
15
05
#540000
1"
0!
1J
0I
1B
1_
0X
0U
1K
1W
#550000
1!
1I
0B
0d
0W
0K
#560000
1$
0#
0"
0!
1L
0M
0J
0I
1B
1a
0_
1\
0T
1X
1W
1!!
1~
1v
1b
1Z
1g
0q
1*
1)
1@
0A
1l
0k
1t
1r
0m
1>
06
07
1=
#570000
1!
1I
0B
1$!
1e
0a
1]
0W
1U
0$!
0!!
0~
0v
0b
0Z
1-
0g
1q
1h
0-
0*
0)
0@
1A
0l
1k
0h
0t
0r
0%!
1n
0i
1m
1%!
0n
1i
0u
18
0>
16
17
1<
1?
1u
08
0=
0<
0?
15
05
#580000
1"
0!
1J
0I
1B
0\
0X
0U
1K
0]
1W
#590000
1!
1I
0B
0e
1]
0W
0K
#600000
1#
0"
0!
1M
0J
0I
1B
1e
0]
1a
1\
1X
1W
#610000
1!
1I
0B
0e
0a
0W
1U
#620000
1"
0!
1J
0I
1B
0\
0X
0U
1K
1W
#630000
1!
1I
0B
0W
0K
#640000
0%
0$
0#
0"
0!
0N
0L
0M
0J
0I
1B
1R
1W
#650000
1!
1I
0B
1s
1e
1]
0W
1U
#660000
1"
0!
1J
0I
1B
1_
0U
1K
0s
0]
1W
#670000
1!
1I
0B
1s
0e
1a
1]
0W
0K
1$!
1#!
1v
1b
0p
1g
0q
1-
1,
1@
0A
1l
0k
1h
1t
1r
0m
1n
0i
1>
06
07
18
1=
1?
#680000
1#
0"
0!
1M
0J
0I
1B
0$!
0#!
0v
0s
1e
0b
0]
1T
0a
0_
1W
0u
0g
1p
0-
0,
0@
1A
0l
1k
0h
0%!
1q
15
1m
1%!
0n
1i
0t
0r
0>
1<
1u
08
0=
0<
0?
16
17
05
#690000
1!
1I
0B
0e
1d
0W
1U
1f
0V
1$!
1"!
1v
1g
0j
1l
1h
0q
1-
1+
1@
0A
0m
1n
1t
1r
0u
18
1=
06
07
15
#700000
1"
0!
1J
0I
1B
1#!
1_
0U
1K
0$!
1W
1V
0n
1m
1,
0-
0i
1u
08
0=
1?
05
#710000
1!
1I
0B
1$!
0d
1a
0W
0K
0f
1n
0m
1j
1-
0$!
0#!
0"!
0v
0g
0u
0%!
1q
0k
18
1=
0l
1k
0h
0t
0r
0-
0,
0+
0@
1A
15
1<
1>
1m
1%!
0n
1i
0>
16
17
1u
08
0=
0<
0?
05
#720000
1$
0#
0"
0!
1L
0M
0J
0I
1B
1!!
0a
0_
1\
0T
1v
1b
1W
0!!
0v
0b
1g
1*
1@
0A
0g
1l
0k
1h
0*
0@
1A
0l
1k
0h
0m
0%!
1n
0i
1>
1m
1%!
0n
1i
0u
18
0>
1=
1<
1?
1u
08
0=
0<
0?
15
05
#730000
1!
1I
0B
1s
1e
1]
0W
1U
1t
1f
1^
1$!
1!!
1v
1g
06
0k
1-
1*
1@
0A
1>
#740000
1"
0!
1J
0I
1B
1#!
0t
0\
0U
1K
0$!
0s
0]
1W
1l
0^
1S
1,
0-
16
0m
1h
0V
0%!
1n
0j
1=
1%!
0q
1k
18
1<
1t
1r
0<
0>
06
07
#750000
1!
1I
0B
1$!
1s
0e
1]
0W
0K
0f
0S
1-
0$!
0#!
0!!
0v
0g
0u
1V
0l
0h
1j
0i
0-
0,
0*
0@
1A
15
1m
0n
1i
1q
1?
1u
0t
0r
08
0=
0?
05
16
17
#760000
1#
0"
0!
1M
0J
0I
1B
0s
1e
0]
1t
1\
1W
0t
1f
1c
06
1"!
1!!
1v
1r
16
1+
1*
1@
0A
07
#770000
1!
1I
0B
1$!
0e
0c
0W
1U
0f
0r
1g
1-
0$!
0"!
0!!
0v
0g
1l
0k
1h
17
0l
1k
0h
0m
0%!
1n
0i
0-
0+
0*
0@
1A
1>
1m
1%!
0n
1i
0u
18
0>
1=
1<
1?
1u
08
0=
0<
0?
15
05
#780000
1"
0!
1J
0I
1B
0\
0U
1K
1c
1W
0c
1r
0r
07
17
#790000
1!
1I
0B
0W
0K
#800000
1%
0$
0#
0"
0!
1N
0L
0M
0J
0I
1B
1X
0R
1W
#810000
1!
1I
0B
1e
1]
0W
1U
1f
1o
1$!
1~
1v
1g
0p
1l
0k
1h
0q
1-
1)
1@
0A
0m
1n
0i
1t
1r
1>
0u
18
1=
1?
06
07
15
#820000
1"
0!
1J
0I
1B
1#!
1_
0X
0U
1K
0$!
0]
1W
1`
0o
1,
0-
0g
1p
0l
1k
0h
0%!
1m
1%!
0n
1i
0>
1<
1u
08
0=
0<
0?
05
#830000
1!
1I
0B
1$!
0e
1]
0W
0K
0f
0`
1-
0$!
0#!
0~
0v
1q
0t
0r
0-
0,
0)
0@
1A
16
17
#840000
1#
0"
0!
1M
0J
0I
1B
1e
0]
1T
0_
1X
1W
1f
1Y
1"!
1~
1v
1g
1r
1l
1+
1)
1@
0A
07
0m
1=
#850000
1!
1I
0B
1$!
0e
1d
0W
1U
0f
0Y
1-
0$!
0"!
0~
0v
0g
0r
0k
1h
0l
1k
0h
0%!
1n
0i
0-
0+
0)
0@
1A
17
1>
1m
1%!
0n
1i
0u
18
0>
1<
1?
1u
08
0=
0<
0?
15
05
#860000
1"
0!
1J
0I
1B
1_
0X
0U
1K
1W
#870000
1!
1I
0B
0d
0W
0K
#880000
1$
0#
0"
0!
1L
0M
0J
0I
1B
1a
0_
1\
0T
1X
1W
1!!
1~
1v
1b
1Z
1g
0q
1*
1)
1@
0A
1l
0k
1t
1r
0m
1>
06
07
1=
#890000
1!
1I
0B
1$!
1e
0a
1]
0W
1U
0$!
0!!
0~
0v
0b
0Z
1-
0g
1q
1h
0-
0*
0)
0@
1A
0l
1k
0h
0t
0r
0%!
1n
0i
1m
1%!
0n
1i
0u
18
0>
16
17
1<
1?
1u
08
0=
0<
0?
15
05
#900000
1"
0!
1J
0I
1B
0\
0X
0U
1K
0]
1W
#910000
1!
1I
0B
0e
1]
0W
0K
#920000
1#
0"
0!
1M
0J
0I
1B
1e
0]
1a
1\
1X
1W
#930000
1!
1I
0B
0e
0a
0W
1U
#940000
1"
0!
1J
0I
1B
0\
0X
0U
1K
1W
#950000
1!
1I
0B
0W
0K
#960000
0%
0$
0#
0"
0!
0N
0L
0M
0J
0I
1B
1R
1W
#970000
1!
1I
0B
1s
1e
1]
0W
1U
#980000
1"
0!
1J
0I
1B
1_
0U
1K
0s
0]
1W
#990000
1!
1I
0B
1s
0e
1a
1]
0W
0K
1$!
1#!
1v
1b
0p
1g
0q
1-
1,
1@
0A
1l
0k
1h
1t
1r
0m
1n
0i
1>
06
07
18
1=
1?
