identificadorDeCodigoDeBarras/simulation/qsim/identificadorDeCodigoDeBarras.msim.vcd
$comment
	File created using the following command:
		vcd file identificadorDeCodigoDeBarras.msim.vcd -direction
$end
$date
	Sun Mar 05 12:18:51 2023
$end
$version
	ModelSim Version 10.1d
$end
$timescale
	1ps
$end
$scope module identificadorDeCodigoDeBarras_vlg_vec_tst $end
$var reg 1 ! E0 $end
$var reg 1 " E1 $end
$var reg 1 # E2 $end
$var reg 1 $ E3 $end
$var reg 1 % E4 $end
$var reg 1 & E5 $end
$var reg 1 ' E6 $end
$var reg 1 ( E7 $end
$var wire 1 ) C0 $end
$var wire 1 * C1 $end
$var wire 1 + C2 $end
$var wire 1 , C3 $end
$var wire 1 - C4 $end
$var wire 1 . L0 $end
$var wire 1 / L1 $end
$var wire 1 0 L2 $end
$var wire 1 1 L3 $end
$var wire 1 2 L4 $end
$var wire 1 3 L5 $end
$var wire 1 4 L6 $end
$var wire 1 5 a $end
$var wire 1 6 b $end
$var wire 1 7 c $end
$var wire 1 8 d $end
$var wire 1 9 dig $end
$var wire 1 : e $end
$var wire 1 ; f $end
$var wire 1 < g $end
$var wire 1 = ledG $end
$var wire 1 > ledR $end
$var wire 1 ? sampler $end
$scope module i1 $end
$var wire 1 @ gnd $end
$var wire 1 A vcc $end
$var wire 1 B unknown $end
$var tri1 1 C devclrn $end
$var tri1 1 D devpor $end
$var tri1 1 E devoe $end
$var wire 1 F E4~combout $end
$var wire 1 G E5~combout $end
$var wire 1 H E7~combout $end
$var wire 1 I E6~combout $end
$var wire 1 J inst2|C~0_combout $end
$var wire 1 K E3~combout $end
$var wire 1 L E1~combout $end
$var wire 1 M inst2|dig1Enabled~1_combout $end
$var wire 1 N E2~combout $end
$var wire 1 O E0~combout $end
$var wire 1 P inst2|C~2_combout $end
$var wire 1 Q inst2|C~1_combout $end
$var wire 1 R inst2|dig5Enabled~0_combout $end
$var wire 1 S inst2|ERRO~5_combout $end
$var wire 1 T inst2|dig2Enabled~0_combout $end
$var wire 1 U inst2|ERRO~3_combout $end
$var wire 1 V inst2|ERRO~1_combout $end
$var wire 1 W inst2|ERRO~0_combout $end
$var wire 1 X inst2|ERRO~2_combout $end
$var wire 1 Y inst2|ERRO~4_combout $end
$var wire 1 Z inst2|G~0_combout $end
$var wire 1 [ inst2|G~1_combout $end
$var wire 1 \ inst2|dig1Enabled~0_combout $end
$var wire 1 ] inst2|G~combout $end
$var wire 1 ^ inst2|C~3_combout $end
$var wire 1 _ inst2|dig5Enabled~1_combout $end
$var wire 1 ` inst2|F~combout $end
$var wire 1 a inst2|dig8Enabled~0_combout $end
$var wire 1 b inst2|ERRO~6_combout $end
$var wire 1 c inst2|dig6Enabled~0_combout $end
$var wire 1 d inst2|dig7Enabled~0_combout $end
$var wire 1 e inst2|E~0_combout $end
$var wire 1 f inst2|E~combout $end
$var wire 1 g inst2|D~0_combout $end
$var wire 1 h inst2|dig9Enabled~0_combout $end
$var wire 1 i inst2|B~0_combout $end
$var wire 1 j inst2|A~0_combout $end
$var wire 1 k inst2|acionamentoDig4~0_combout $end
$var wire 1 l inst2|acionamentoDig4~1_combout $end
$var wire 1 m inst1|linha0~0_combout $end
$var wire 1 n inst1|linha0~1_combout $end
$var wire 1 o inst1|linha0~2_combout $end
$var wire 1 p inst1|linha0~3_combout $end
$var wire 1 q inst1|linha0~4_combout $end
$var wire 1 r inst1|linha0~5_combout $end
$var wire 1 s inst1|linha0~6_combout $end
$var wire 1 t inst1|coluna0~combout $end
$var wire 1 u inst1|coluna1~combout $end
$var wire 1 v inst1|coluna2~combout $end
$var wire 1 w inst1|coluna3~combout $end
$var wire 1 x inst1|coluna4~combout $end
$upscope $end
$upscope $end
$enddefinitions $end
#0
$dumpvars
0!
0"
0#
0$
0%
0&
0'
0(
0)
0*
0+
0,
0-
0.
0/
00
01
02
03
04
15
06
07
18
19
1:
1;
1<
0=
1>
x?
0@
1A
xB
1C
1D
1E
0F
0G
0H
0I
1J
0K
0L
0M
0N
0O
0P
1Q
0R
0S
0T
0U
0V
0W
0X
0Y
0Z
0[
0\
1]
0^
0_
1`
0a
0b
0c
0d
0e
1f
0g
0h
0i
0j
0k
1l
0m
0n
0o
0p
0q
0r
0s
0t
0u
0v
0w
0x
$end
#1000
1!
1O
0?
1W
1P
#2000
1"
0!
1L
0O
1?
1M
0P
#3000
1!
1O
0?
0W
1U
1P
1u
1t
1Y
1Z
1*
1)
1=
0>
1j
05
#4000
1#
0"
0!
1N
0L
0O
1?
0u
0t
1b
1\
0Y
1W
0P
0U
0M
0Z
1[
0*
0)
0=
1>
0j
0[
1g
1e
0`
0]
0g
0e
1`
1]
0l
0f
0;
0<
15
08
1l
1f
1;
1<
09
0:
18
19
1:
#5000
1!
1O
0?
1c
0\
0W
1V
1X
1v
1t
1Y
1Z
1+
1)
1=
0>
1[
0`
0]
0;
0<
#6000
1"
0!
1L
0O
1?
1u
1k
0c
1M
0t
1\
1j
1g
1e
1]
1*
0)
0f
1<
05
08
0:
#7000
1!
1O
0?
1t
0k
0\
0V
1U
0l
0]
0X
1)
0v
0u
0t
0Y
09
0<
0Z
0+
0*
0)
0=
1>
0j
0[
0g
0e
1`
1]
15
1l
1f
1;
1<
18
19
1:
#8000
1$
0#
0"
0!
1K
0N
0L
0O
1?
1w
0b
0U
0M
1Y
0w
0Y
1Z
1,
1=
0>
0Z
1j
1[
0,
0=
1>
0j
0[
1g
1e
0`
0]
05
0g
0e
1`
1]
0l
0f
0;
0<
15
08
1l
1f
1;
1<
09
0:
18
19
1:
#9000
1!
1O
0?
1k
1W
1P
1X
1^
1w
1t
1Y
17
1Z
1,
1)
1=
0>
1j
1[
1g
1e
0]
05
0f
0<
08
0:
#10000
1"
0!
1L
0O
1?
1u
1a
0^
0t
0P
1f
0`
1*
07
0)
1:
0;
#11000
1!
1O
0?
1t
0k
0a
0W
1P
0l
0f
0X
1)
0w
0u
0t
0Y
09
0:
0Z
0,
0*
0)
0=
1>
0j
0[
0g
0e
1`
1]
15
1l
1f
1;
1<
18
19
1:
#12000
1#
0"
0!
1N
0L
0O
1?
1k
1\
1W
0P
1^
1h
1X
0^
17
1i
1w
1v
1Y
07
1Z
16
1,
1+
1=
0>
1j
1[
1g
1e
0`
0]
05
0f
0;
0<
08
0:
#13000
1!
1O
0?
1t
0k
0\
0W
0l
0h
0X
1)
0i
0w
0v
0t
0Y
09
0Z
06
0,
0+
0)
0=
1>
0j
0[
0g
0e
1`
1]
15
1l
1f
1;
1<
18
19
1:
#14000
1"
0!
1L
0O
1?
1\
#15000
1!
1O
0?
0\
#16000
1%
0$
0#
0"
0!
1F
0K
0N
0L
0O
1?
1S
1R
0J
#17000
1!
1O
0?
1W
0R
1P
1X
1T
1x
1t
1Y
1-
1)
1=
0>
#18000
1"
0!
1L
0O
1?
1u
0T
1M
0t
1R
0P
1i
1*
0)
16
#19000
1!
1O
0?
1t
0W
0R
1P
0X
0i
1Z
1)
0x
0u
0t
0Y
1j
1[
06
0Z
1g
1e
0`
0]
0-
0*
0)
0=
1>
05
0j
0[
0l
0f
0;
0<
08
0g
0e
1`
1]
09
0:
15
1l
1f
1;
1<
18
19
1:
#20000
1#
0"
0!
1N
0L
0O
1?
1b
1\
1W
0P
1T
0M
1d
1X
0T
1i
1x
1v
1Y
1Z
16
1-
1+
1=
0>
1j
1[
1g
0`
0]
05
0;
0<
08
#21000
1!
1O
0?
1t
0\
0W
1V
0d
0X
1)
0i
1e
0x
0v
0t
0Y
0l
0f
0Z
06
0-
0+
0)
0=
1>
0j
0[
09
0:
0g
0e
1`
1]
15
1l
1f
1;
1<
18
19
1:
#22000
1"
0!
1L
0O
1?
1k
1M
1\
#23000
1!
1O
0?
0k
0\
0V
#24000
1$
0#
0"
0!
1K
0N
0L
0O
1?
0b
1U
0S
0M
1R
1x
1w
1Y
1_
1Z
1-
1,
1=
0>
1j
1[
1g
0]
05
0<
08
#25000
1!
1O
0?
1t
1k
1W
0U
0R
1P
0x
0w
0t
0Y
0_
1)
0Z
1e
0`
0-
0,
0)
0=
1>
0j
0[
0l
0f
0;
0g
0e
1`
1]
09
0:
15
1l
1f
1;
1<
18
19
1:
#26000
1"
0!
1L
0O
1?
1a
1R
0P
#27000
1!
1O
0?
0k
0a
0W
0R
1P
#28000
1#
0"
0!
1N
0L
0O
1?
1k
1\
1W
0P
1U
#29000
1!
1O
0?
0k
0\
0W
0U
#30000
1"
0!
1L
0O
1?
1\
#31000
1!
1O
0?
0\
#32000
1&
0%
0$
0#
0"
0!
1G
0F
0K
0N
0L
0O
1?
1m
0Q
1.
#33000
1!
1O
0?
1W
1P
#34000
1"
0!
1L
0O
1?
1M
0P
#35000
1!
1O
0?
0W
1U
1P
1u
1t
1Y
1Z
1*
1)
1=
0>
1j
1[
1g
1e
0`
0]
05
0l
0f
0;
0<
08
09
0:
#36000
1#
0"
0!
1N
0L
0O
1?
0u
0t
1b
1\
0Y
1W
0P
0U
0M
0Z
0*
0)
0=
1>
0j
0[
0g
0e
1`
1]
15
1l
1f
1;
1<
18
19
1:
#37000
1!
1O
0?
0\
0W
1V
1X
1v
1t
1Y
1Z
1+
1)
1=
0>
1j
1[
1g
1e
0`
0]
05
0l
0f
0;
0<
08
09
0:
#38000
1"
0!
1L
0O
1?
1u
1k
1M
0t
1\
1*
0)
#39000
1!
1O
0?
1t
0k
0\
0V
1U
0X
1)
0v
0u
0t
0Y
0Z
0+
0*
0)
0=
1>
0j
0[
0g
0e
1`
1]
15
1l
1f
1;
1<
18
19
1:
#40000
1$
0#
0"
0!
1K
0N
0L
0O
1?
1w
0b
0U
0M
1Y
0w
0Y
1Z
1,
1=
0>
0Z
1j
1[
0,
0=
1>
0j
0[
1g
1e
0`
0]
05
0g
0e
1`
1]
0l
0f
0;
0<
15
08
1l
1f
1;
1<
09
0:
18
19
1:
#41000
1!
1O
0?
1k
1W
1P
1X
1w
1t
1Y
1Z
1,
1)
1=
0>
1j
1[
1g
1e
0`
0]
05
0l
0f
0;
0<
08
09
0:
#42000
1"
0!
1L
0O
1?
1u
1a
0t
0P
1*
0)
#43000
1!
1O
0?
1t
0k
0a
0W
1P
0X
1)
0w
0u
0t
0Y
0Z
0,
0*
0)
0=
1>
0j
0[
0g
0e
1`
1]
15
1l
1f
1;
1<
18
19
1:
#44000
1#
0"
0!
1N
0L
0O
1?
1k
1\
1W
0P
1X
1w
1v
1Y
1Z
1,
1+
1=
0>
1j
1[
1g
1e
0`
0]
05
0l
0f
0;
0<
08
09
0:
#45000
1!
1O
0?
1t
0k
0\
0W
0X
1)
0w
0v
0t
0Y
0Z
0,
0+
0)
0=
1>
0j
0[
0g
0e
1`
1]
15
1l
1f
1;
1<
18
19
1:
#46000
1"
0!
1L
0O
1?
1\
#47000
1!
1O
0?
0\
#48000
1%
0$
0#
0"
0!
1F
0K
0N
0L
0O
1?
1S
#49000
1!
1O
0?
1W
1P
1X
1x
1t
1Y
1Z
1-
1)
1=
0>
1j
1[
1g
1e
0`
0]
05
0l
0f
0;
0<
08
09
0:
#50000
1"
0!
1L
0O
1?
1u
1M
0t
0P
1*
0)
#51000
1!
1O
0?
1t
0W
1P
0X
1)
0x
0u
0t
0Y
0Z
0-
0*
0)
0=
1>
0j
0[
0g
0e
1`
1]
15
1l
1f
1;
1<
18
19
1:
#52000
1#
0"
0!
1N
0L
0O
1?
1b
1\
1W
0P
0M
1X
1x
1v
1Y
1Z
1-
1+
1=
0>
1j
1[
1g
1e
0`
0]
05
0l
0f
0;
0<
08
09
0:
#53000
1!
1O
0?
1t
0\
0W
1V
0X
1)
0x
0v
0t
0Y
0Z
0-
0+
0)
0=
1>
0j
0[
0g
0e
1`
1]
15
1l
1f
1;
1<
18
19
1:
#54000
1"
0!
1L
0O
1?
1k
1M
1\
#55000
1!
1O
0?
0k
0\
0V
#56000
1$
0#
0"
0!
1K
0N
0L
0O
1?
0b
1U
0S
0M
1x
1w
1Y
1Z
1-
1,
1=
0>
1j
1[
1g
1e
0`
0]
05
0l
0f
0;
0<
08
09
0:
#57000
1!
1O
0?
1t
1k
1W
0U
1P
0x
0w
0t
0Y
1)
0Z
0-
0,
0)
0=
1>
0j
0[
0g
0e
1`
1]
15
1l
1f
1;
1<
18
19
1:
#58000
1"
0!
1L
0O
1?
1a
0P
#59000
1!
1O
0?
0k
0a
0W
1P
#60000
1#
0"
0!
1N
0L
0O
1?
1k
1\
1W
0P
1U
#61000
1!
1O
0?
0k
0\
0W
0U
#62000
1"
0!
1L
0O
1?
1\
#63000
1!
1O
0?
0\
#64000
1'
0&
0%
0$
0#
0"
0!
1I
0G
0F
0K
0N
0L
0O
1?
1n
0m
1/
0.
#65000
1!
1O
0?
1W
1P
#66000
1"
0!
1L
0O
1?
1M
0P
#67000
1!
1O
0?
0W
1U
1P
1u
1t
1Y
1Z
1*
1)
1=
0>
1j
1[
1g
1e
0`
0]
05
0l
0f
0;
0<
08
09
0:
#68000
1#
0"
0!
1N
0L
0O
1?
0u
0t
1b
1\
0Y
1W
0P
0U
0M
0Z
0*
0)
0=
1>
0j
0[
0g
0e
1`
1]
15
1l
1f
1;
1<
18
19
1:
#69000
1!
1O
0?
0\
0W
1V
1X
1v
1t
1Y
1Z
1+
1)
1=
0>
1j
1[
1g
1e
0`
0]
05
0l
0f
0;
0<
08
09
0:
#70000
1"
0!
1L
0O
1?
1u
1k
1M
0t
1\
1*
0)
#71000
1!
1O
0?
1t
0k
0\
0V
1U
0X
1)
0v
0u
0t
0Y
0Z
0+
0*
0)
0=
1>
0j
0[
0g
0e
1`
1]
15
1l
1f
1;
1<
18
19
1:
#72000
1$
0#
0"
0!
1K
0N
0L
0O
1?
1w
0b
0U
0M
1Y
0w
0Y
1Z
1,
1=
0>
0Z
1j
1[
0,
0=
1>
0j
0[
1g
1e
0`
0]
05
0g
0e
1`
1]
0l
0f
0;
0<
15
08
1l
1f
1;
1<
09
0:
18
19
1:
#73000
1!
1O
0?
1k
1W
1P
1X
1w
1t
1Y
1Z
1,
1)
1=
0>
1j
1[
1g
1e
0`
0]
05
0l
0f
0;
0<
08
09
0:
#74000
1"
0!
1L
0O
1?
1u
1a
0t
0P
1*
0)
#75000
1!
1O
0?
1t
0k
0a
0W
1P
0X
1)
0w
0u
0t
0Y
0Z
0,
0*
0)
0=
1>
0j
0[
0g
0e
1`
1]
15
1l
1f
1;
1<
18
19
1:
#76000
1#
0"
0!
1N
0L
0O
1?
1k
1\
1W
0P
1X
1w
1v
1Y
1Z
1,
1+
1=
0>
1j
1[
1g
1e
0`
0]
05
0l
0f
0;
0<
08
09
0:
#77000
1!
1O
0?
1t
0k
0\
0W
0X
1)
0w
0v
0t
0Y
0Z
0,
0+
0)
0=
1>
0j
0[
0g
0e
1`
1]
15
1l
1f
1;
1<
18
19
1:
#78000
1"
0!
1L
0O
1?
1\
#79000
1!
1O
0?
0\
#80000
1%
0$
0#
0"
0!
1F
0K
0N
0L
0O
1?
1S
#81000
1!
1O
0?
1W
1P
1X
1x
1t
1Y
1Z
1-
1)
1=
0>
1j
1[
1g
1e
0`
0]
05
0l
0f
0;
0<
08
09
0:
#82000
1"
0!
1L
0O
1?
1u
1M
0t
0P
1*
0)
#83000
1!
1O
0?
1t
0W
1P
0X
1)
0x
0u
0t
0Y
0Z
0-
0*
0)
0=
1>
0j
0[
0g
0e
1`
1]
15
1l
1f
1;
1<
18
19
1:
#84000
1#
0"
0!
1N
0L
0O
1?
1b
1\
1W
0P
0M
1X
1x
1v
1Y
1Z
1-
1+
1=
0>
1j
1[
1g
1e
0`
0]
05
0l
0f
0;
0<
08
09
0:
#85000
1!
1O
0?
1t
0\
0W
1V
0X
1)
0x
0v
0t
0Y
0Z
0-
0+
0)
0=
1>
0j
0[
0g
0e
1`
1]
15
1l
1f
1;
1<
18
19
1:
#86000
1"
0!
1L
0O
1?
1k
1M
1\
#87000
1!
1O
0?
0k
0\
0V
#88000
1$
0#
0"
0!
1K
0N
0L
0O
1?
0b
1U
0S
0M
1x
1w
1Y
1Z
1-
1,
1=
0>
1j
1[
1g
1e
0`
0]
05
0l
0f
0;
0<
08
09
0:
#89000
1!
1O
0?
1t
1k
1W
0U
1P
0x
0w
0t
0Y
1)
0Z
0-
0,
0)
0=
1>
0j
0[
0g
0e
1`
1]
15
1l
1f
1;
1<
18
19
1:
#90000
1"
0!
1L
0O
1?
1a
0P
#91000
1!
1O
0?
0k
0a
0W
1P
#92000
1#
0"
0!
1N
0L
0O
1?
1k
1\
1W
0P
1U
#93000
1!
1O
0?
0k
0\
0W
0U
#94000
1"
0!
1L
0O
1?
1\
#95000
1!
1O
0?
0\
#96000
1&
0%
0$
0#
0"
0!
1G
0F
0K
0N
0L
0O
1?
1o
0n
10
0/
#97000
1!
1O
0?
1W
1P
#98000
1"
0!
1L
0O
1?
1M
0P
#99000
1!
1O
0?
0W
1U
1P
1u
1t
1Y
1Z
1*
1)
1=
0>
1j
1[
1g
1e
0`
0]
05
0l
0f
0;
0<
08
09
0:
#100000
1#
0"
0!
1N
0L
0O
1?
0u
0t
1b
1\
0Y
1W
0P
0U
0M
0Z
0*
0)
0=
1>
0j
0[
0g
0e
1`
1]
15
1l
1f
1;
1<
18
19
1:
#101000
1!
1O
0?
0\
0W
1V
1X
1v
1t
1Y
1Z
1+
1)
1=
0>
1j
1[
1g
1e
0`
0]
05
0l
0f
0;
0<
08
09
0:
#102000
1"
0!
1L
0O
1?
1u
1k
1M
0t
1\
1*
0)
#103000
1!
1O
0?
1t
0k
0\
0V
1U
0X
1)
0v
0u
0t
0Y
0Z
0+
0*
0)
0=
1>
0j
0[
0g
0e
1`
1]
15
1l
1f
1;
1<
18
19
1:
#104000
1$
0#
0"
0!
1K
0N
0L
0O
1?
1w
0b
0U
0M
1Y
0w
0Y
1Z
1,
1=
0>
0Z
1j
1[
0,
0=
1>
0j
0[
1g
1e
0`
0]
05
0g
0e
1`
1]
0l
0f
0;
0<
15
08
1l
1f
1;
1<
09
0:
18
19
1:
#105000
1!
1O
0?
1k
1W
1P
1X
1w
1t
1Y
1Z
1,
1)
1=
0>
1j
1[
1g
1e
0`
0]
05
0l
0f
0;
0<
08
09
0:
#106000
1"
0!
1L
0O
1?
1u
1a
0t
0P
1*
0)
#107000
1!
1O
0?
1t
0k
0a
0W
1P
0X
1)
0w
0u
0t
0Y
0Z
0,
0*
0)
0=
1>
0j
0[
0g
0e
1`
1]
15
1l
1f
1;
1<
18
19
1:
#108000
1#
0"
0!
1N
0L
0O
1?
1k
1\
1W
0P
1X
1w
1v
1Y
1Z
1,
1+
1=
0>
1j
1[
1g
1e
0`
0]
05
0l
0f
0;
0<
08
09
0:
#109000
1!
1O
0?
1t
0k
0\
0W
0X
1)
0w
0v
0t
0Y
0Z
0,
0+
0)
0=
1>
0j
0[
0g
0e
1`
1]
15
1l
1f
1;
1<
18
19
1:
#110000
1"
0!
1L
0O
1?
1\
#111000
1!
1O
0?
0\
#112000
1%
0$
0#
0"
0!
1F
0K
0N
0L
0O
1?
1S
#113000
1!
1O
0?
1W
1P
1X
1x
1t
1Y
1Z
1-
1)
1=
0>
1j
1[
1g
1e
0`
0]
05
0l
0f
0;
0<
08
09
0:
#114000
1"
0!
1L
0O
1?
1u
1M
0t
0P
1*
0)
#115000
1!
1O
0?
1t
0W
1P
0X
1)
0x
0u
0t
0Y
0Z
0-
0*
0)
0=
1>
0j
0[
0g
0e
1`
1]
15
1l
1f
1;
1<
18
19
1:
#116000
1#
0"
0!
1N
0L
0O
1?
1b
1\
1W
0P
0M
1X
1x
1v
1Y
1Z
1-
1+
1=
0>
1j
1[
1g
1e
0`
0]
05
0l
0f
0;
0<
08
09
0:
#117000
1!
1O
0?
1t
0\
0W
1V
0X
1)
0x
0v
0t
0Y
0Z
0-
0+
0)
0=
1>
0j
0[
0g
0e
1`
1]
15
1l
1f
1;
1<
18
19
1:
#118000
1"
0!
1L
0O
1?
1k
1M
1\
#119000
1!
1O
0?
0k
0\
0V
#120000
1$
0#
0"
0!
1K
0N
0L
0O
1?
0b
1U
0S
0M
1x
1w
1Y
1Z
1-
1,
1=
0>
1j
1[
1g
1e
0`
0]
05
0l
0f
0;
0<
08
09
0:
#121000
1!
1O
0?
1t
1k
1W
0U
1P
0x
0w
0t
0Y
1)
0Z
0-
0,
0)
0=
1>
0j
0[
0g
0e
1`
1]
15
1l
1f
1;
1<
18
19
1:
#122000
1"
0!
1L
0O
1?
1a
0P
#123000
1!
1O
0?
0k
0a
0W
1P
#124000
1#
0"
0!
1N
0L
0O
1?
1k
1\
1W
0P
1U
#125000
1!
1O
0?
0k
0\
0W
0U
#126000
1"
0!
1L
0O
1?
1\
#127000
1!
1O
0?
0\
#128000
1(
0'
0&
0%
0$
0#
0"
0!
1H
0I
0G
0F
0K
0N
0L
0O
1?
1p
0o
11
00
#129000
1!
1O
0?
1W
1P
#130000
1"
0!
1L
0O
1?
1M
0P
#131000
1!
1O
0?
0W
1U
1P
1u
1t
1Y
1Z
1*
1)
1=
0>
1j
1[
1g
1e
0`
0]
05
0l
0f
0;
0<
08
09
0:
#132000
1#
0"
0!
1N
0L
0O
1?
0u
0t
1b
1\
0Y
1W
0P
0U
0M
0Z
0*
0)
0=
1>
0j
0[
0g
0e
1`
1]
15
1l
1f
1;
1<
18
19
1:
#133000
1!
1O
0?
0\
0W
1V
1X
1v
1t
1Y
1Z
1+
1)
1=
0>
1j
1[
1g
1e
0`
0]
05
0l
0f
0;
0<
08
09
0:
#134000
1"
0!
1L
0O
1?
1u
1k
1M
0t
1\
1*
0)
#135000
1!
1O
0?
1t
0k
0\
0V
1U
0X
1)
0v
0u
0t
0Y
0Z
0+
0*
0)
0=
1>
0j
0[
0g
0e
1`
1]
15
1l
1f
1;
1<
18
19
1:
#136000
1$
0#
0"
0!
1K
0N
0L
0O
1?
1w
0b
0U
0M
1Y
0w
0Y
1Z
1,
1=
0>
0Z
1j
1[
0,
0=
1>
0j
0[
1g
1e
0`
0]
05
0g
0e
1`
1]
0l
0f
0;
0<
15
08
1l
1f
1;
1<
09
0:
18
19
1:
#137000
1!
1O
0?
1k
1W
1P
1X
1w
1t
1Y
1Z
1,
1)
1=
0>
1j
1[
1g
1e
0`
0]
05
0l
0f
0;
0<
08
09
0:
#138000
1"
0!
1L
0O
1?
1u
1a
0t
0P
1*
0)
#139000
1!
1O
0?
1t
0k
0a
0W
1P
0X
1)
0w
0u
0t
0Y
0Z
0,
0*
0)
0=
1>
0j
0[
0g
0e
1`
1]
15
1l
1f
1;
1<
18
19
1:
#140000
1#
0"
0!
1N
0L
0O
1?
1k
1\
1W
0P
1X
1w
1v
1Y
1Z
1,
1+
1=
0>
1j
1[
1g
1e
0`
0]
05
0l
0f
0;
0<
08
09
0:
#141000
1!
1O
0?
1t
0k
0\
0W
0X
1)
0w
0v
0t
0Y
0Z
0,
0+
0)
0=
1>
0j
0[
0g
0e
1`
1]
15
1l
1f
1;
1<
18
19
1:
#142000
1"
0!
1L
0O
1?
1\
#143000
1!
1O
0?
0\
#144000
1%
0$
0#
0"
0!
1F
0K
0N
0L
0O
1?
1S
#145000
1!
1O
0?
1W
1P
1X
1x
1t
1Y
1Z
1-
1)
1=
0>
1j
1[
1g
1e
0`
0]
05
0l
0f
0;
0<
08
09
0:
#146000
1"
0!
1L
0O
1?
1u
1M
0t
0P
1*
0)
#147000
1!
1O
0?
1t
0W
1P
0X
1)
0x
0u
0t
0Y
0Z
0-
0*
0)
0=
1>
0j
0[
0g
0e
1`
1]
15
1l
1f
1;
1<
18
19
1:
#148000
1#
0"
0!
1N
0L
0O
1?
1b
1\
1W
0P
0M
1X
1x
1v
1Y
1Z
1-
1+
1=
0>
1j
1[
1g
1e
0`
0]
05
0l
0f
0;
0<
08
09
0:
#149000
1!
1O
0?
1t
0\
0W
1V
0X
1)
0x
0v
0t
0Y
0Z
0-
0+
0)
0=
1>
0j
0[
0g
0e
1`
1]
15
1l
1f
1;
1<
18
19
1:
#150000
1"
0!
1L
0O
1?
1k
1M
1\
#151000
1!
1O
0?
0k
0\
0V
#152000
1$
0#
0"
0!
1K
0N
0L
0O
1?
0b
1U
0S
0M
1x
1w
1Y
1Z
1-
1,
1=
0>
1j
1[
1g
1e
0`
0]
05
0l
0f
0;
0<
08
09
0:
#153000
1!
1O
0?
1t
1k
1W
0U
1P
0x
0w
0t
0Y
1)
0Z
0-
0,
0)
0=
1>
0j
0[
0g
0e
1`
1]
15
1l
1f
1;
1<
18
19
1:
#154000
1"
0!
1L
0O
1?
1a
0P
#155000
1!
1O
0?
0k
0a
0W
1P
#156000
1#
0"
0!
1N
0L
0O
1?
1k
1\
1W
0P
1U
#157000
1!
1O
0?
0k
0\
0W
0U
#158000
1"
0!
1L
0O
1?
1\
#159000
1!
1O
0?
0\
#160000
1&
0%
0$
0#
0"
0!
1G
0F
0K
0N
0L
0O
1?
1q
0p
12
01
#161000
1!
1O
0?
1W
1P
#162000
1"
0!
1L
0O
1?
1M
0P
#163000
1!
1O
0?
0W
1U
1P
1u
1t
1Y
1Z
1*
1)
1=
0>
1j
1[
1g
1e
0`
0]
05
0l
0f
0;
0<
08
09
0:
#164000
1#
0"
0!
1N
0L
0O
1?
0u
0t
1b
1\
0Y
1W
0P
0U
0M
0Z
0*
0)
0=
1>
0j
0[
0g
0e
1`
1]
15
1l
1f
1;
1<
18
19
1:
#165000
1!
1O
0?
0\
0W
1V
1X
1v
1t
1Y
1Z
1+
1)
1=
0>
1j
1[
1g
1e
0`
0]
05
0l
0f
0;
0<
08
09
0:
#166000
1"
0!
1L
0O
1?
1u
1k
1M
0t
1\
1*
0)
#167000
1!
1O
0?
1t
0k
0\
0V
1U
0X
1)
0v
0u
0t
0Y
0Z
0+
0*
0)
0=
1>
0j
0[
0g
0e
1`
1]
15
1l
1f
1;
1<
18
19
1:
#168000
1$
0#
0"
0!
1K
0N
0L
0O
1?
1w
0b
0U
0M
1Y
0w
0Y
1Z
1,
1=
0>
0Z
1j
1[
0,
0=
1>
0j
0[
1g
1e
0`
0]
05
0g
0e
1`
1]
0l
0f
0;
0<
15
08
1l
1f
1;
1<
09
0:
18
19
1:
#169000
1!
1O
0?
1k
1W
1P
1X
1w
1t
1Y
1Z
1,
1)
1=
0>
1j
1[
1g
1e
0`
0]
05
0l
0f
0;
0<
08
09
0:
#170000
1"
0!
1L
0O
1?
1u
1a
0t
0P
1*
0)
#171000
1!
1O
0?
1t
0k
0a
0W
1P
0X
1)
0w
0u
0t
0Y
0Z
0,
0*
0)
0=
1>
0j
0[
0g
0e
1`
1]
15
1l
1f
1;
1<
18
19
1:
#172000
1#
0"
0!
1N
0L
0O
1?
1k
1\
1W
0P
1X
1w
1v
1Y
1Z
1,
1+
1=
0>
1j
1[
1g
1e
0`
0]
05
0l
0f
0;
0<
08
09
0:
#173000
1!
1O
0?
1t
0k
0\
0W
0X
1)
0w
0v
0t
0Y
0Z
0,
0+
0)
0=
1>
0j
0[
0g
0e
1`
1]
15
1l
1f
1;
1<
18
19
1:
#174000
1"
0!
1L
0O
1?
1\
#175000
1!
1O
0?
0\
#176000
1%
0$
0#
0"
0!
1F
0K
0N
0L
0O
1?
1S
#177000
1!
1O
0?
1W
1P
1X
1x
1t
1Y
1Z
1-
1)
1=
0>
1j
1[
1g
1e
0`
0]
05
0l
0f
0;
0<
08
09
0:
#178000
1"
0!
1L
0O
1?
1u
1M
0t
0P
1*
0)
#179000
1!
1O
0?
1t
0W
1P
0X
1)
0x
0u
0t
0Y
0Z
0-
0*
0)
0=
1>
0j
0[
0g
0e
1`
1]
15
1l
1f
1;
1<
18
19
1:
#180000
1#
0"
0!
1N
0L
0O
1?
1b
1\
1W
0P
0M
1X
1x
1v
1Y
1Z
1-
1+
1=
0>
1j
1[
1g
1e
0`
0]
05
0l
0f
0;
0<
08
09
0:
#181000
1!
1O
0?
1t
0\
0W
1V
0X
1)
0x
0v
0t
0Y
0Z
0-
0+
0)
0=
1>
0j
0[
0g
0e
1`
1]
15
1l
1f
1;
1<
18
19
1:
#182000
1"
0!
1L
0O
1?
1k
1M
1\
#183000
1!
1O
0?
0k
0\
0V
#184000
1$
0#
0"
0!
1K
0N
0L
0O
1?
0b
1U
0S
0M
1x
1w
1Y
1Z
1-
1,
1=
0>
1j
1[
1g
1e
0`
0]
05
0l
0f
0;
0<
08
09
0:
#185000
1!
1O
0?
1t
1k
1W
0U
1P
0x
0w
0t
0Y
1)
0Z
0-
0,
0)
0=
1>
0j
0[
0g
0e
1`
1]
15
1l
1f
1;
1<
18
19
1:
#186000
1"
0!
1L
0O
1?
1a
0P
#187000
1!
1O
0?
0k
0a
0W
1P
#188000
1#
0"
0!
1N
0L
0O
1?
1k
1\
1W
0P
1U
#189000
1!
1O
0?
0k
0\
0W
0U
#190000
1"
0!
1L
0O
1?
1\
#191000
1!
1O
0?
0\
#192000
1'
0&
0%
0$
0#
0"
0!
1I
0G
0F
0K
0N
0L
0O
1?
1r
0q
13
02
#193000
1!
1O
0?
1W
1P
#194000
1"
0!
1L
0O
1?
1M
0P
#195000
1!
1O
0?
0W
1U
1P
1u
1t
1Y
1Z
1*
1)
1=
0>
1j
1[
1g
1e
0`
0]
05
0l
0f
0;
0<
08
09
0:
#196000
1#
0"
0!
1N
0L
0O
1?
0u
0t
1b
1\
0Y
1W
0P
0U
0M
0Z
0*
0)
0=
1>
0j
0[
0g
0e
1`
1]
15
1l
1f
1;
1<
18
19
1:
#197000
1!
1O
0?
0\
0W
1V
1X
1v
1t
1Y
1Z
1+
1)
1=
0>
1j
1[
1g
1e
0`
0]
05
0l
0f
0;
0<
08
09
0:
#198000
1"
0!
1L
0O
1?
1u
1k
1M
0t
1\
1*
0)
